2Filaments100_10                                                                                                              
2                                                                                                               
10                                                                                                              
0       3       0.5     0       0       0       0       0       0       0       0       0       0       0       0
1       3       0.5     1       0       0       0       0       0       0       0       0       0       0       0
2       3       0.5     2       0       0       0       0       0       0       0       0       0       0       0
3       3       0.5     3       0       0       0       0       0       0       0       0       0       0       0
4       3       0.5     4       0       0       0       0       0       0       0       0       0       0       0
5       3       0.5     5       0       0       0       0       0       0       0       0       0       0       0
6       3       0.5     6       0       0       0       0       0       0       0       0       0       0       0
7       3       0.5     7       0       0       0       0       0       0       0       0       0       0       0
8       3       0.5     8       0       0       0       0       0       0       0       0       0       0       0
9       3       0.5     9       0       0       0       0       0       0       0       0       0       0       0
10                                                                                                              
10       3       0.5     0       10       0       0       0       0       0       0       0       0       0       0
11       3       0.5     1       10       0       0       0       0       0       0       0       0       0       0
12       3       0.5     2       10       0       0       0       0       0       0       0       0       0       0
13       3       0.5     3       10       0       0       0       0       0       0       0       0       0       0
14       3       0.5     4       10       0       0       0       0       0       0       0       0       0       0
15       3       0.5     5       10       0       0       0       0       0       0       0       0       0       0
16       3       0.5     6       10       0       0       0       0       0       0       0       0       0       0
17       3       0.5     7       10       0       0       0       0       0       0       0       0       0       0
18       3       0.5     8       10       0       0       0       0       0       0       0       0       0       0
19       3       0.5     9       10       0       0       0       0       0       0       0       0       0       0
44                                                                                                              
0       0       1       0       4       100    1       FENE                                                    
1       1       2       0       4       100    1       FENE                                                    
2       2       3       0       4       100    1       FENE                                                    
3       3       4       0       4       100    1       FENE                                                    
4       4       5       0       4       100    1       FENE                                                    
5       5       6       0       4       100    1       FENE                                                    
6       6       7       0       4       100    1       FENE                                                    
7       7       8       0       4       100    1       FENE                                                    
8       8       9       0       4       100    1       FENE                                                    
9       10      11      0       4       100    1       FENE                                                    
10      11      12      0       4       100    1       FENE                                                    
11      12      13      0       4       100    1       FENE                                                    
12      13      14      0       4       100    1       FENE                                                    
13      14      15      0       4       100    1       FENE                                                    
14      15      16      0       4       100    1       FENE                                                    
15      16      17      0       4       100    1       FENE                                                    
16      17      18      0       4       100    1       FENE                                                    
17      18      19      0       4       100    1       FENE                                                    
18      0       1       2       3       100    1       Bending                                                 
19      1       2       3       3       100    1       Bending                                                 
20      2       3       4       3       100    1       Bending                                                 
21      3       4       5       3       100    1       Bending                                                 
22      4       5       6       3       100    1       Bending                                                 
23      5       6       7       3       100    1       Bending                                                 
24      6       7       8       3       100    1       Bending                                                 
25      7       8       9       3       100    1       Bending                                                 
26      10      11      12      3       100    1       Bending                                                 
27      11      12      13      3       100    1       Bending                                                 
28      12      13      14      3       100    1       Bending                                                 
29      13      14      15      3       100    1       Bending                                                 
30      14      15      16      3       100    1       Bending                                                 
31      15      16      17      3       100    1       Bending                                                 
32      16      17      18      3       100    1       Bending                                                 
33      17      18      19      3       100    1       Bending                                                 
34      0       10      0       1       100    1       LJ                                                      
35      1       11      0       1       100    1       LJ                                                      
36      2       12      0       1       100    1       LJ                                                      
37      3       13      0       1       100    1       LJ                                                      
38      4       14      0       1       100    1       LJ                                                      
39      5       15      0       1       100    1       LJ                                                      
40      6       16      0       1       100    1       LJ                                                      
41      7       17      0       1       100    1       LJ                                                      
42      8       18      0       1       100    1       LJ                                                      
43      9       19      0       1       100    1       LJ                                                      
