2Filaments                                                                                                              
2                                                                                                               
10                                                                                                              
0       3       0.5     0       0       0       0       0       0       0       0       0       0       0       0
1       3       0.5     1       0       0       0       0       0       0       0       0       0       0       0
2       3       0.5     2       0       0       0       0       0       0       0       0       0       0       0
3       3       0.5     3       0       0       0       0       0       0       0       0       0       0       0
4       3       0.5     4       0       0       0       0       0       0       0       0       0       0       0
5       3       0.5     5       0       0       0       0       0       0       0       0       0       0       0
6       3       0.5     6       0       0       0       0       0       0       0       0       0       0       0
7       3       0.5     7       0       0       0       0       0       0       0       0       0       0       0
8       3       0.5     8       0       0       0       0       0       0       0       0       0       0       0
9       3       0.5     9       0       0       0       0       0       0       0       0       0       0       0
10                                                                                                              
10                                              3                                                       0.5                                     0                                                       5                                               0                                                       0                                                       0                                                       0                                                       0                                                       0                                                       0                                                       0                                                       0                                                       0
11                                              3                                                       0.5                                     1                                                       5                                               0                                                       0                                                       0                                                       0                                                       0                                                       0                                                       0                                                       0                                                       0                                                       0
12                                              3                                                       0.5                                     2                                                       5                                               0                                                       0                                                       0                                                       0                                                       0                                                       0                                                       0                                                       0                                                       0                                                       0
13                                              3                                                       0.5                                     3                                                       5                                               0                                                       0                                                       0                                                       0                                                       0                                                       0                                                       0                                                       0                                                       0                                                       0
14                                              3                                                       0.5                                     4                                                       5                                               0                                                       0                                                       0                                                       0                                                       0                                                       0                                                       0                                                       0                                                       0                                                       0
15                                              3                                                       0.5                                     5                                                       5                                               0                                                       0                                                       0                                                       0                                                       0                                                       0                                                       0                                                       0                                                       0                                                       0
16                                              3                                                       0.5                                     6                                                       5                                               0                                                       0                                                       0                                                       0                                                       0                                                       0                                                       0                                                       0                                                       0                                                       0
17                                              3                                                       0.5                                     7                                                       5                                               0                                                       0                                                       0                                                       0                                                       0                                                       0                                                       0                                                       0                                                       0                                                       0
18                                              3                                                       0.5                                     8                                                       5                                               0                                                       0                                                       0                                                       0                                                       0                                                       0                                                       0                                                       0                                                       0                                                       0
19                                              3                                                       0.5                                     9                                                       5                                               0                                                       0                                                       0                                                       0                                                       0                                                       0                                                       0                                                       0                                                       0                                                       0

52                                                                                                             
0       0       1       0       2       1000     1       Bond                                                    
1       1       2       0       2       1000     1       Bond                                                    
2       2       3       0       2       1000     1       Bond                                                    
3       3       4       0       2       1000     1       Bond                                                    
4       4       5       0       2       1000     1       Bond                                                    
5       5       6       0       2       1000     1       Bond                                                    
6       6       7       0       2       1000     1       Bond                                                    
7       7       8       0       2       1000    1       Bond                                                    
8       8       9       0       2       1000     1       Bond                                                    
9       10      11      0       2       1000     1       Bond                                                    
10      11      12      0       2       1000     1       Bond                                                    
11      12      13      0       2       1000     1       Bond                                                    
12      13      14      0       2       1000     1       Bond                                                    
13      14      15      0       2       1000     1       Bond                                                    
14      15      16      0       2       1000     1       Bond                                                    
15      16      17      0       2       1000     1       Bond                                                    
16      17      18      0       2       1000     1       Bond                                                    
17      18      19      0       2       1000     1       Bond                                                    
18      0       1       2       3       1000      1       Bend                                                    
19      1       2       3       3       1000      1       Bend                                                    
20      2       3       4       3       1000      1       Bend                                                    
21      3       4       5       3       1000     1       Bend                                                    
22      4       5       6       3       1000      1       Bend                                                    
23      5       6       7       3       1000      1       Bend                                                    
24      6       7       8       3       1000      1       Bend                                                    
25      7       8       9       3       1000      1       Bend                                                    
26      10      11      12      3       1000      1       Bend                                                    
27      11      12      13      3       1000      1       Bend                                                    
28      12      13      14      3       1000      1       Bend                                                    
29      13      14      15      3       1000      1       Bend                                                    
30      14      15      16      3       1000      1       Bend                                                    
31      15      16      17      3       1000      1       Bend                                                    
32      16      17      18      3       1000      1       Bend                                                    
33      17      18      19      3       1000      1       Bend    


34                                              10                                              11                                              0                                                       1                                                       1000                                    1                                                       Bond
35                                              11                                              12                                              0                                                       1                                                       1000                                    1                                                       Bond
36                                              12                                              13                                              0                                                       1                                                       1000                                    1                                                       Bond
37                                              13                                              14                                              0                                                       1                                                       1000                                    1                                                       Bond
38                                              14                                              15                                              0                                                       1                                                       1000                                    1                                                       Bond
39                                              15                                              16                                              0                                                       1                                                       1000                                    1                                                       Bond
40                                              16                                              17                                              0                                                       1                                                       1000                                    1                                                       Bond
41                                              17                                              18                                              0                                                       1                                                       1000                                    1                                                       Bond
42                                              18                                              19                                              0                                                       1                                                       1000                                    1                                                       Bond
43                                                      0                                                       1                                                       0                                                       1                                                       1000                                    1                                                       Bond
44                                                      1                                                       2                                                       0                                                       1                                                       1000                                    1                                                       Bond
45                                                      2                                                       3                                                       0                                                       1                                                       1000                                    1                                                       Bond
46                                                      3                                                       4                                                       0                                                       1                                                       1000                                    1                                                       Bond
47                                                      4                                                       5                                                       0                                                       1                                                       1000                                    1                                                       Bond
48                                                      5                                                       6                                                       0                                                       1                                                       1000                                    1                                                       Bond
49                                                      6                                                       7                                                       0                                                       1                                                       1000                                    1                                                       Bond
50                                                      7                                                       8                                                       0                                                       1                                                       1000                            1                                                       Bond    
51                                                      8                                                       9                                                       0                                                       1                                                       1000                                    1                                                       Bond

                                                
                                             
