Zimm
1
30
0 3.15e-06 0.5 0.0 0 0 0 0 0 0 0 0 0 0 0
1 3.15e-06 0.5 1.0 0 0 0 0 0 0 0 0 0 0 0
2 3.15e-06 0.5 2.0 0 0 0 0 0 0 0 0 0 0 0
3 3.15e-06 0.5 3.0 0 0 0 0 0 0 0 0 0 0 0
4 3.15e-06 0.5 4.0 0 0 0 0 0 0 0 0 0 0 0
5 3.15e-06 0.5 5.0 0 0 0 0 0 0 0 0 0 0 0
6 3.15e-06 0.5 6.0 0 0 0 0 0 0 0 0 0 0 0
7 3.15e-06 0.5 7.0 0 0 0 0 0 0 0 0 0 0 0
8 3.15e-06 0.5 8.0 0 0 0 0 0 0 0 0 0 0 0
9 3.15e-06 0.5 9.0 0 0 0 0 0 0 0 0 0 0 0
10 3.15e-06 0.5 10.0 0 0 0 0 0 0 0 0 0 0 0
11 3.15e-06 0.5 11.0 0 0 0 0 0 0 0 0 0 0 0
12 3.15e-06 0.5 12.0 0 0 0 0 0 0 0 0 0 0 0
13 3.15e-06 0.5 13.0 0 0 0 0 0 0 0 0 0 0 0
14 3.15e-06 0.5 14.0 0 0 0 0 0 0 0 0 0 0 0
15 3.15e-06 0.5 15.0 0 0 0 0 0 0 0 0 0 0 0
16 3.15e-06 0.5 16.0 0 0 0 0 0 0 0 0 0 0 0
17 3.15e-06 0.5 17.0 0 0 0 0 0 0 0 0 0 0 0
18 3.15e-06 0.5 18.0 0 0 0 0 0 0 0 0 0 0 0
19 3.15e-06 0.5 19.0 0 0 0 0 0 0 0 0 0 0 0
20 3.15e-06 0.5 20.0 0 0 0 0 0 0 0 0 0 0 0
21 3.15e-06 0.5 21.0 0 0 0 0 0 0 0 0 0 0 0
22 3.15e-06 0.5 22.0 0 0 0 0 0 0 0 0 0 0 0
23 3.15e-06 0.5 23.0 0 0 0 0 0 0 0 0 0 0 0
24 3.15e-06 0.5 24.0 0 0 0 0 0 0 0 0 0 0 0
25 3.15e-06 0.5 25.0 0 0 0 0 0 0 0 0 0 0 0
26 3.15e-06 0.5 26.0 0 0 0 0 0 0 0 0 0 0 0
27 3.15e-06 0.5 27.0 0 0 0 0 0 0 0 0 0 0 0
28 3.15e-06 0.5 28.0 0 0 0 0 0 0 0 0 0 0 0
29 3.15e-06 0.5 29.0 0 0 0 0 0 0 0 0 0 0 0
57
0 0 1 0 2 100 1.0 HarmonicBond
1 1 2 0 2 100 1.0 HarmonicBond
2 2 3 0 2 100 1.0 HarmonicBond
3 3 4 0 2 100 1.0 HarmonicBond
4 4 5 0 2 100 1.0 HarmonicBond
5 5 6 0 2 100 1.0 HarmonicBond
6 6 7 0 2 100 1.0 HarmonicBond
7 7 8 0 2 100 1.0 HarmonicBond
8 8 9 0 2 100 1.0 HarmonicBond
9 9 10 0 2 100 1.0 HarmonicBond
10 10 11 0 2 100 1.0 HarmonicBond
11 11 12 0 2 100 1.0 HarmonicBond
12 12 13 0 2 100 1.0 HarmonicBond
13 13 14 0 2 100 1.0 HarmonicBond
14 14 15 0 2 100 1.0 HarmonicBond
15 15 16 0 2 100 1.0 HarmonicBond
16 16 17 0 2 100 1.0 HarmonicBond
17 17 18 0 2 100 1.0 HarmonicBond
18 18 19 0 2 100 1.0 HarmonicBond
19 19 20 0 2 100 1.0 HarmonicBond
20 20 21 0 2 100 1.0 HarmonicBond
21 21 22 0 2 100 1.0 HarmonicBond
22 22 23 0 2 100 1.0 HarmonicBond
23 23 24 0 2 100 1.0 HarmonicBond
24 24 25 0 2 100 1.0 HarmonicBond
25 25 26 0 2 100 1.0 HarmonicBond
26 26 27 0 2 100 1.0 HarmonicBond
27 27 28 0 2 100 1.0 HarmonicBond
28 28 29 0 2 100 1.0 HarmonicBond
29 0 1 2 3 100 1.0 Bending
30 1 2 3 3 100 1.0 Bending
31 2 3 4 3 100 1.0 Bending
32 3 4 5 3 100 1.0 Bending
33 4 5 6 3 100 1.0 Bending
34 5 6 7 3 100 1.0 Bending
35 6 7 8 3 100 1.0 Bending
36 7 8 9 3 100 1.0 Bending
37 8 9 10 3 100 1.0 Bending
38 9 10 11 3 100 1.0 Bending
39 10 11 12 3 100 1.0 Bending
40 11 12 13 3 100 1.0 Bending
41 12 13 14 3 100 1.0 Bending
42 13 14 15 3 100 1.0 Bending
43 14 15 16 3 100 1.0 Bending
44 15 16 17 3 100 1.0 Bending
45 16 17 18 3 100 1.0 Bending
46 17 18 19 3 100 1.0 Bending
47 18 19 20 3 100 1.0 Bending
48 19 20 21 3 100 1.0 Bending
49 20 21 22 3 100 1.0 Bending
50 21 22 23 3 100 1.0 Bending
51 22 23 24 3 100 1.0 Bending
52 23 24 25 3 100 1.0 Bending
53 24 25 26 3 100 1.0 Bending
54 25 26 27 3 100 1.0 Bending
55 26 27 28 3 100 1.0 Bending
56 27 28 29 3 100 1.0 Bending