99 Average Velocity: 7.12555 TotalMass: 9.45e-05 TotalFoce: 0.00412464 Gamma: 129.969
98 Average Velocity: 7.11069 TotalMass: 9.45e-05 TotalFoce: 0.00409317 Gamma: 130.241
bash: line 1:  7356 Segmentation fault      /usr/users/iff_th2/mutny/Desktop/Simulation_2/Dynamics_simulation_iterative_hydrodynamic_force/main /usr/users/iff_th2/mutny/Desktop/Simulation_2/Dynamics_simulation_iterative_hydrodynamic_force/Inputs/LineKebab_Spring_Run_size_100_Number_of_beads_97_velocity_x_0_velocity_y_0_latticestep_1.03092783505_totalmass_9.45e-05.txt 0
96 Average Velocity: 7.08051 TotalMass: 9.45e-05 TotalFoce: 0.00410461 Gamma: 130.796
95 Average Velocity: 7.06519 TotalMass: 9.45e-05 TotalFoce: 0.00409126 Gamma: 131.079
94 Average Velocity: 7.04971 TotalMass: 9.45e-05 TotalFoce: 0.00406551 Gamma: 131.367
93 Average Velocity: 7.03406 TotalMass: 9.45e-05 TotalFoce: 0.00406647 Gamma: 131.659
92 Average Velocity: 7.01824 TotalMass: 9.45e-05 TotalFoce: 0.00410175 Gamma: 131.956
91 Average Velocity: 7.00225 TotalMass: 9.45e-05 TotalFoce: 0.00404167 Gamma: 132.257
90 Average Velocity: 6.98609 TotalMass: 9.45e-05 TotalFoce: 0.00412369 Gamma: 132.564
89 Average Velocity: 6.96974 TotalMass: 9.45e-05 TotalFoce: 0.00402451 Gamma: 132.874
88 Average Velocity: 6.95321 TotalMass: 9.45e-05 TotalFoce: 0.00414276 Gamma: 133.19
87 Average Velocity: 6.9365 TotalMass: 9.45e-05 TotalFoce: 0.00413418 Gamma: 133.511
86 Average Velocity: 6.91959 TotalMass: 9.45e-05 TotalFoce: 0.00410271 Gamma: 133.837
85 Average Velocity: 6.90248 TotalMass: 9.45e-05 TotalFoce: 0.00412846 Gamma: 134.169
84 Average Velocity: 6.88518 TotalMass: 9.45e-05 TotalFoce: 0.00407696 Gamma: 134.506
83 Average Velocity: 6.86767 TotalMass: 9.45e-05 TotalFoce: 0.00413132 Gamma: 134.849
82 Average Velocity: 6.84994 TotalMass: 9.45e-05 TotalFoce: 0.0041151 Gamma: 135.198
81 Average Velocity: 6.83201 TotalMass: 9.45e-05 TotalFoce: 0.00413704 Gamma: 135.553
80 Average Velocity: 6.81384 TotalMass: 9.45e-05 TotalFoce: 0.00417805 Gamma: 135.914
79 Average Velocity: 6.79546 TotalMass: 9.45e-05 TotalFoce: 0.00410175 Gamma: 136.282
78 Average Velocity: 6.77684 TotalMass: 9.45e-05 TotalFoce: 0.0041666 Gamma: 136.657
77 Average Velocity: 6.75798 TotalMass: 9.45e-05 TotalFoce: 0.00419044 Gamma: 137.038
76 Average Velocity: 6.73887 TotalMass: 9.45e-05 TotalFoce: 0.0041132 Gamma: 137.427
75 Average Velocity: 6.71952 TotalMass: 9.45e-05 TotalFoce: 0.00403976 Gamma: 137.822
74 Average Velocity: 6.69991 TotalMass: 9.45e-05 TotalFoce: 0.00407791 Gamma: 138.226
73 Average Velocity: 6.68003 TotalMass: 9.45e-05 TotalFoce: 0.00407982 Gamma: 138.637
72 Average Velocity: 6.65988 TotalMass: 9.45e-05 TotalFoce: 0.00414276 Gamma: 139.057
71 Average Velocity: 6.63945 TotalMass: 9.45e-05 TotalFoce: 0.00406456 Gamma: 139.485
70 Average Velocity: 6.61873 TotalMass: 9.45e-05 TotalFoce: 0.00410843 Gamma: 139.921
69 Average Velocity: 6.59771 TotalMass: 9.45e-05 TotalFoce: 0.0041256 Gamma: 140.367
68 Average Velocity: 6.5764 TotalMass: 9.45e-05 TotalFoce: 0.00412273 Gamma: 140.822
67 Average Velocity: 6.55476 TotalMass: 9.45e-05 TotalFoce: 0.00404167 Gamma: 141.287
66 Average Velocity: 6.53281 TotalMass: 9.45e-05 TotalFoce: 0.00410175 Gamma: 141.761
65 Average Velocity: 6.51052 TotalMass: 9.45e-05 TotalFoce: 0.00412464 Gamma: 142.247
64 Average Velocity: 6.48789 TotalMass: 9.45e-05 TotalFoce: 0.00417709 Gamma: 142.743
63 Average Velocity: 6.46491 TotalMass: 9.45e-05 TotalFoce: 0.00410748 Gamma: 143.25
bash: line 1: 16678 Segmentation fault      /usr/users/iff_th2/mutny/Desktop/Simulation_2/Dynamics_simulation_iterative_hydrodynamic_force/main /usr/users/iff_th2/mutny/Desktop/Simulation_2/Dynamics_simulation_iterative_hydrodynamic_force/Inputs/LineKebab_Spring_Run_size_100_Number_of_beads_62_velocity_x_0_velocity_y_0_latticestep_1.61290322581_totalmass_9.45e-05.txt 0
61 Average Velocity: 6.41783 TotalMass: 9.45e-05 TotalFoce: 0.00408745 Gamma: 144.301
60 Average Velocity: 6.39372 TotalMass: 9.45e-05 TotalFoce: 0.00411606 Gamma: 144.845
59 Average Velocity: 6.3692 TotalMass: 9.45e-05 TotalFoce: 0.00421047 Gamma: 145.403
bash: line 1:  7037 Segmentation fault      /usr/users/iff_th2/mutny/Desktop/Simulation_2/Dynamics_simulation_iterative_hydrodynamic_force/main /usr/users/iff_th2/mutny/Desktop/Simulation_2/Dynamics_simulation_iterative_hydrodynamic_force/Inputs/LineKebab_Spring_Run_size_100_Number_of_beads_58_velocity_x_0_velocity_y_0_latticestep_1.72413793103_totalmass_9.45e-05.txt 0
57 Average Velocity: 6.31891 TotalMass: 9.45e-05 TotalFoce: 0.0041008 Gamma: 146.56
56 Average Velocity: 6.2931 TotalMass: 9.45e-05 TotalFoce: 0.00410271 Gamma: 147.161
55 Average Velocity: 6.26683 TotalMass: 9.45e-05 TotalFoce: 0.00406647 Gamma: 147.778
54 Average Velocity: 6.24009 TotalMass: 9.45e-05 TotalFoce: 0.0041275 Gamma: 148.411
53 Average Velocity: 6.21285 TotalMass: 9.45e-05 TotalFoce: 0.00406456 Gamma: 149.062
52 Average Velocity: 6.18509 TotalMass: 9.45e-05 TotalFoce: 0.00410843 Gamma: 149.731
51 Average Velocity: 6.1568 TotalMass: 9.45e-05 TotalFoce: 0.00416946 Gamma: 150.419
50 Average Velocity: 6.12796 TotalMass: 9.45e-05 TotalFoce: 0.00413322 Gamma: 151.127
49 Average Velocity: 6.09854 TotalMass: 9.45e-05 TotalFoce: 0.00409698 Gamma: 151.856
48 Average Velocity: 6.06852 TotalMass: 9.45e-05 TotalFoce: 0.00408173 Gamma: 152.607
47 Average Velocity: 6.03787 TotalMass: 9.45e-05 TotalFoce: 0.00415039 Gamma: 153.382
46 Average Velocity: 6.00658 TotalMass: 9.45e-05 TotalFoce: 0.00408363 Gamma: 154.181
45 Average Velocity: 5.9746 TotalMass: 9.45e-05 TotalFoce: 0.00407219 Gamma: 155.006
44 Average Velocity: 5.94191 TotalMass: 9.45e-05 TotalFoce: 0.00412941 Gamma: 155.859
43 Average Velocity: 5.90848 TotalMass: 9.45e-05 TotalFoce: 0.00408554 Gamma: 156.741
42 Average Velocity: 5.87427 TotalMass: 9.45e-05 TotalFoce: 0.00404167 Gamma: 157.654
41 Average Velocity: 5.83925 TotalMass: 9.45e-05 TotalFoce: 0.00401878 Gamma: 158.599
40 Average Velocity: 5.80337 TotalMass: 9.45e-05 TotalFoce: 0.00418472 Gamma: 159.58
39 Average Velocity: 5.76659 TotalMass: 9.45e-05 TotalFoce: 0.00419807 Gamma: 160.597
38 Average Velocity: 5.72887 TotalMass: 9.45e-05 TotalFoce: 0.00403786 Gamma: 161.655
37 Average Velocity: 5.69016 TotalMass: 9.45e-05 TotalFoce: 0.00412178 Gamma: 162.755
36 Average Velocity: 5.65041 TotalMass: 9.45e-05 TotalFoce: 0.00422478 Gamma: 163.9
35 Average Velocity: 5.60955 TotalMass: 9.45e-05 TotalFoce: 0.00409698 Gamma: 165.094
34 Average Velocity: 5.56752 TotalMass: 9.45e-05 TotalFoce: 0.00400162 Gamma: 166.34
33 Average Velocity: 5.52425 TotalMass: 9.45e-05 TotalFoce: 0.00404358 Gamma: 167.643
32 Average Velocity: 5.47968 TotalMass: 9.45e-05 TotalFoce: 0.00409126 Gamma: 169.006
bash: line 1: 15800 Segmentation fault      /usr/users/iff_th2/mutny/Desktop/Simulation_2/Dynamics_simulation_iterative_hydrodynamic_force/main /usr/users/iff_th2/mutny/Desktop/Simulation_2/Dynamics_simulation_iterative_hydrodynamic_force/Inputs/LineKebab_Spring_Run_size_100_Number_of_beads_31_velocity_x_0_velocity_y_0_latticestep_3.22580645161_totalmass_9.45e-05.txt 0
30 Average Velocity: 5.38626 TotalMass: 9.45e-05 TotalFoce: 0.00405502 Gamma: 171.938
bash: line 1: 18276 Segmentation fault      /usr/users/iff_th2/mutny/Desktop/Simulation_2/Dynamics_simulation_iterative_hydrodynamic_force/main /usr/users/iff_th2/mutny/Desktop/Simulation_2/Dynamics_simulation_iterative_hydrodynamic_force/Inputs/LineKebab_Spring_Run_size_100_Number_of_beads_29_velocity_x_0_velocity_y_0_latticestep_3.44827586207_totalmass_9.45e-05.txt 0
28 Average Velocity: 5.2865 TotalMass: 9.45e-05 TotalFoce: 0.00400925 Gamma: 175.182
27 Average Velocity: 5.23397 TotalMass: 9.45e-05 TotalFoce: 0.00400543 Gamma: 176.94
26 Average Velocity: 5.17949 TotalMass: 9.45e-05 TotalFoce: 0.00403595 Gamma: 178.802
25 Average Velocity: 5.12291 TotalMass: 9.45e-05 TotalFoce: 0.00411224 Gamma: 180.776
24 Average Velocity: 5.06407 TotalMass: 9.45e-05 TotalFoce: 0.00394058 Gamma: 182.877
23 Average Velocity: 5.00278 TotalMass: 9.45e-05 TotalFoce: 0.00396729 Gamma: 185.117
22 Average Velocity: 4.93882 TotalMass: 9.45e-05 TotalFoce: 0.00401688 Gamma: 187.514
21 Average Velocity: 4.87196 TotalMass: 9.45e-05 TotalFoce: 0.00405884 Gamma: 190.088
20 Average Velocity: 4.80191 TotalMass: 9.45e-05 TotalFoce: 0.00382614 Gamma: 192.861
19 Average Velocity: 4.72836 TotalMass: 9.45e-05 TotalFoce: 0.00398636 Gamma: 195.861
18 Average Velocity: 4.65094 TotalMass: 9.45e-05 TotalFoce: 0.0039978 Gamma: 199.121
17 Average Velocity: 4.56922 TotalMass: 9.45e-05 TotalFoce: 0.00400925 Gamma: 202.682
16 Average Velocity: 4.48269 TotalMass: 9.45e-05 TotalFoce: 0.00389099 Gamma: 206.595
15 Average Velocity: 4.39075 TotalMass: 9.45e-05 TotalFoce: 0.00391388 Gamma: 210.921
14 Average Velocity: 4.29269 TotalMass: 9.45e-05 TotalFoce: 0.00354767 Gamma: 215.739
13 Average Velocity: 4.18762 TotalMass: 9.45e-05 TotalFoce: 0.00335693 Gamma: 221.152
12 Average Velocity: 4.07446 TotalMass: 9.45e-05 TotalFoce: 0.0035553 Gamma: 227.294
11 Average Velocity: 3.95188 TotalMass: 9.45e-05 TotalFoce: 0.00350189 Gamma: 234.344
10 Average Velocity: 3.81815 TotalMass: 9.45e-05 TotalFoce: 0.00292206 Gamma: 242.552
