Sperm														
1														
50														
0	3	0.5	0	0	0	0	0	0	0	0	0	0	0	0
1	3	0.5	1	0	0	0	0	0	0	0	0	0	0	0
2	3	0.5	2	0	0	0	0	0	0	0	0	0	0	0
3	3	0.5	3	0	0	0	0	0	0	0	0	0	0	0
4	3	0.5	4	0	0	0	0	0	0	0	0	0	0	0
5	3	0.5	5	0	0	0	0	0	0	0	0	0	0	0
6	3	0.5	6	0	0	0	0	0	0	0	0	0	0	0
7	3	0.5	7	0	0	0	0	0	0	0	0	0	0	0
8	3	0.5	8	0	0	0	0	0	0	0	0	0	0	0
9	3	0.5	9	0	0	0	0	0	0	0	0	0	0	0
10	3	0.5	10	0	0	0	0	0	0	0	0	0	0	0
11	3	0.5	11	0	0	0	0	0	0	0	0	0	0	0
12	3	0.5	12	0	0	0	0	0	0	0	0	0	0	0
13	3	0.5	13	0	0	0	0	0	0	0	0	0	0	0
14	3	0.5	14	0	0	0	0	0	0	0	0	0	0	0
15	3	0.5	15	0	0	0	0	0	0	0	0	0	0	0
16	3	0.5	16	0	0	0	0	0	0	0	0	0	0	0
17	3	0.5	17	0	0	0	0	0	0	0	0	0	0	0
18	3	0.5	18	0	0	0	0	0	0	0	0	0	0	0
19	3	0.5	19	0	0	0	0	0	0	0	0	0	0	0
20	3	0.5	20	0	0	0	0	0	0	0	0	0	0	0
21	3	0.5	21	0	0	0	0	0	0	0	0	0	0	0
22	3	0.5	22	0	0	0	0	0	0	0	0	0	0	0
23	3	0.5	23	0	0	0	0	0	0	0	0	0	0	0
24	3	0.5	24	0	0	0	0	0	0	0	0	0	0	0
25	3	0.5	25	0	0	0	0	0	0	0	0	0	0	0
26	3	0.5	26	0	0	0	0	0	0	0	0	0	0	0
27	3	0.5	27	0	0	0	0	0	0	0	0	0	0	0
28	3	0.5	28	0	0	0	0	0	0	0	0	0	0	0
29	3	0.5	29	0	0	0	0	0	0	0	0	0	0	0
30	3	0.5	30	0	0	0	0	0	0	0	0	0	0	0
31	3	0.5	31	0	0	0	0	0	0	0	0	0	0	0
32	3	0.5	32	0	0	0	0	0	0	0	0	0	0	0
33	3	0.5	33	0	0	0	0	0	0	0	0	0	0	0
34	3	0.5	34	0	0	0	0	0	0	0	0	0	0	0
35	3	0.5	35	0	0	0	0	0	0	0	0	0	0	0
36	3	0.5	36	0	0	0	0	0	0	0	0	0	0	0
37	3	0.5	37	0	0	0	0	0	0	0	0	0	0	0
38	3	0.5	38	0	0	0	0	0	0	0	0	0	0	0
39	3	0.5	39	0	0	0	0	0	0	0	0	0	0	0
40	3	0.5	40	0	0	0	0	0	0	0	0	0	0	0
41	3	0.5	41	0	0	0	0	0	0	0	0	0	0	0
42	3	0.5	42	0	0	0	0	0	0	0	0	0	0	0
43	3	0.5	43	0	0	0	0	0	0	0	0	0	0	0
44	3	0.5	44	0	0	0	0	0	0	0	0	0	0	0
45	3	0.5	45	0	0	0	0	0	0	0	0	0	0	0
46	3	0.5	46	0	0	0	0	0	0	0	0	0	0	0
47	3	0.5	47	0	0	0	0	0	0	0	0	0	0	0
48	3	0.5	48	0	0	0	0	0	0	0	0	0	0	0
49	3	0.5	49	0	0	0	0	0	0	0	0	0	0	0
146														
0	0	1	0	2	1000	1	Harmonic							
1	1	2	0	2	1000	1	Harmonic							
2	2	3	0	2	1000	1	Harmonic							
3	3	4	0	2	1000	1	Harmonic							
4	4	5	0	2	1000	1	Harmonic							
5	5	6	0	2	1000	1	Harmonic							
6	6	7	0	2	1000	1	Harmonic							
7	7	8	0	2	1000	1	Harmonic							
8	8	9	0	2	1000	1	Harmonic							
9	9	10	0	2	1000	1	Harmonic							
10	10	11	0	2	1000	1	Harmonic							
11	11	12	0	2	1000	1	Harmonic							
12	12	13	0	2	1000	1	Harmonic							
13	13	14	0	2	1000	1	Harmonic							
14	14	15	0	2	1000	1	Harmonic							
15	15	16	0	2	1000	1	Harmonic							
16	16	17	0	2	1000	1	Harmonic							
17	17	18	0	2	1000	1	Harmonic							
18	18	19	0	2	1000	1	Harmonic							
19	19	20	0	2	1000	1	Harmonic							
20	20	21	0	2	1000	1	Harmonic							
21	21	22	0	2	1000	1	Harmonic							
22	22	23	0	2	1000	1	Harmonic							
23	23	24	0	2	1000	1	Harmonic							
24	24	25	0	2	1000	1	Harmonic							
25	25	26	0	2	1000	1	Harmonic							
26	26	27	0	2	1000	1	Harmonic							
27	27	28	0	2	1000	1	Harmonic							
28	28	29	0	2	1000	1	Harmonic							
29	29	30	0	2	1000	1	Harmonic							
30	30	31	0	2	1000	1	Harmonic							
31	31	32	0	2	1000	1	Harmonic							
32	32	33	0	2	1000	1	Harmonic							
33	33	34	0	2	1000	1	Harmonic							
34	34	35	0	2	1000	1	Harmonic							
35	35	36	0	2	1000	1	Harmonic							
36	36	37	0	2	1000	1	Harmonic							
37	37	38	0	2	1000	1	Harmonic							
38	38	39	0	2	1000	1	Harmonic							
39	39	40	0	2	1000	1	Harmonic							
40	40	41	0	2	1000	1	Harmonic							
41	41	42	0	2	1000	1	Harmonic							
42	42	43	0	2	1000	1	Harmonic							
43	43	44	0	2	1000	1	Harmonic							
44	44	45	0	2	1000	1	Harmonic							
45	45	46	0	2	1000	1	Harmonic							
46	46	47	0	2	1000	1	Harmonic							
47	47	48	0	2	1000	1	Harmonic							
48	48	49	0	2	1000	1	Harmonic							
49	0	1	2	3	1000	1	Bending							
50	1	2	3	3	1000	1	Bending							
51	2	3	4	3	1000	1	Bending							
52	3	4	5	3	1000	1	Bending							
53	4	5	6	3	1000	1	Bending							
54	5	6	7	3	1000	1	Bending							
55	6	7	8	3	1000	1	Bending							
56	7	8	9	3	1000	1	Bending							
57	8	9	10	3	1000	1	Bending							
58	9	10	11	3	1000	1	Bending							
59	10	11	12	3	1000	1	Bending							
60	11	12	13	3	1000	1	Bending							
61	12	13	14	3	1000	1	Bending							
62	13	14	15	3	1000	1	Bending							
63	14	15	16	3	1000	1	Bending							
64	15	16	17	3	1000	1	Bending							
65	16	17	18	3	1000	1	Bending							
66	17	18	19	3	1000	1	Bending							
67	18	19	20	3	1000	1	Bending							
68	19	20	21	3	1000	1	Bending							
69	20	21	22	3	1000	1	Bending							
70	21	22	23	3	1000	1	Bending							
71	22	23	24	3	1000	1	Bending							
72	23	24	25	3	1000	1	Bending							
73	24	25	26	3	1000	1	Bending							
74	25	26	27	3	1000	1	Bending							
75	26	27	28	3	1000	1	Bending							
76	27	28	29	3	1000	1	Bending							
77	28	29	30	3	1000	1	Bending							
78	29	30	31	3	1000	1	Bending							
79	30	31	32	3	1000	1	Bending							
80	31	32	33	3	1000	1	Bending							
81	32	33	34	3	1000	1	Bending							
82	33	34	35	3	1000	1	Bending							
83	34	35	36	3	1000	1	Bending							
84	35	36	37	3	1000	1	Bending							
85	36	37	38	3	1000	1	Bending							
86	37	38	39	3	1000	1	Bending							
87	38	39	40	3	1000	1	Bending							
88	39	40	41	3	1000	1	Bending							
89	40	41	42	3	1000	1	Bending							
90	41	42	43	3	1000	1	Bending							
91	42	43	44	3	1000	1	Bending							
92	43	44	45	3	1000	1	Bending							
93	44	45	46	3	1000	1	Bending							
94	45	46	47	3	1000	1	Bending							
95	46	47	48	3	1000	1	Bending							
96	47	48	49	3	1000	1	Bending							
97	0	1	0	1	1000	1	LJ							
98	1	2	0	2	1000	1	LJ							
99	2	3	0	2	1000	1	LJ							
100	3	4	0	2	1000	1	LJ							
101	4	5	0	2	1000	1	LJ							
102	5	6	0	2	1000	1	LJ							
103	6	7	0	2	1000	1	LJ							
104	7	8	0	2	1000	1	LJ							
105	8	9	0	2	1000	1	LJ							
106	9	10	0	2	1000	1	LJ							
107	10	11	0	2	1000	1	LJ							
108	11	12	0	2	1000	1	LJ							
109	12	13	0	2	1000	1	LJ							
110	13	14	0	2	1000	1	LJ							
111	14	15	0	2	1000	1	LJ							
112	15	16	0	2	1000	1	LJ							
113	16	17	0	2	1000	1	LJ							
114	17	18	0	2	1000	1	LJ							
115	18	19	0	2	1000	1	LJ							
116	19	20	0	2	1000	1	LJ							
117	20	21	0	2	1000	1	LJ							
118	21	22	0	2	1000	1	LJ							
119	22	23	0	2	1000	1	LJ							
120	23	24	0	2	1000	1	LJ							
121	24	25	0	2	1000	1	LJ							
122	25	26	0	2	1000	1	LJ							
123	26	27	0	2	1000	1	LJ							
124	27	28	0	2	1000	1	LJ							
125	28	29	0	2	1000	1	LJ							
126	29	30	0	2	1000	1	LJ							
127	30	31	0	2	1000	1	LJ							
128	31	32	0	2	1000	1	LJ							
129	32	33	0	2	1000	1	LJ							
130	33	34	0	2	1000	1	LJ							
131	34	35	0	2	1000	1	LJ							
132	35	36	0	2	1000	1	LJ							
133	36	37	0	2	1000	1	LJ							
134	37	38	0	2	1000	1	LJ							
135	38	39	0	2	1000	1	LJ							
136	39	40	0	2	1000	1	LJ							
137	40	41	0	2	1000	1	LJ							
138	41	42	0	2	1000	1	LJ							
139	42	43	0	2	1000	1	LJ							
140	43	44	0	2	1000	1	LJ							
141	44	45	0	2	1000	1	LJ							
142	45	46	0	2	1000	1	LJ							
143	46	47	0	2	1000	1	LJ							
144	47	48	0	2	1000	1	LJ							
145	48	49	0	2	1000	1	LJ							
